{"_id":"Compression","numberOfFormTypes":27988,"totalNumberAvailable":279481}
{"_id":"Injection","numberOfFormTypes":27943,"totalNumberAvailable":279302}
{"_id":"Extrusion","numberOfFormTypes":28088,"totalNumberAvailable":281094}
